{
	"info": {
		"_postman_id": "45ccb49e-9e3f-4719-9a0b-1adeea6b31c1",
		"name": "PANTOHealth",
		"schema": "https://schema.getpostman.com/json/collection/v2.1.0/collection.json"
	},
	"item": [
		{
			"name": "CPU temperature",
			"request": {
				"method": "POST",
				"header": [],
				"body": {
					"mode": "urlencoded",
					"urlencoded": [
						{
							"key": "temperature",
							"value": "47",
							"type": "text"
						}
					]
				},
				"url": {
					"raw": "127.0.0.1:3000/cpu-temp/",
					"host": [
						"127",
						"0",
						"0",
						"1"
					],
					"port": "3000",
					"path": [
						"cpu-temp",
						""
					]
				}
			},
			"response": []
		},
		{
			"name": "Show Last 5 min Temp Average",
			"protocolProfileBehavior": {
				"disableBodyPruning": true
			},
			"request": {
				"method": "GET",
				"header": [],
				"body": {
					"mode": "urlencoded",
					"urlencoded": [
						{
							"key": "temperature",
							"value": "25.8",
							"type": "text"
						}
					]
				},
				"url": {
					"raw": "127.0.0.1:3000/cpu-temp/",
					"host": [
						"127",
						"0",
						"0",
						"1"
					],
					"port": "3000",
					"path": [
						"cpu-temp",
						""
					]
				}
			},
			"response": []
		}
	],
	"event": [
		{
			"listen": "prerequest",
			"script": {
				"type": "text/javascript",
				"exec": [
					""
				]
			}
		},
		{
			"listen": "test",
			"script": {
				"type": "text/javascript",
				"exec": [
					""
				]
			}
		}
	],
	"variable": [
		{
			"key": "HOST",
			"value": "127.0.0.1"
		},
		{
			"key": "PORT",
			"value": "3000"
		}
	]
}